[
    {
        "contentId": 229251,
        "artistName": "Andy Warhol",
        "url": "andy-warhol",
        "lastNameFirst": "Warhol Andy",
        "birthDay": "/Date(-1306627200000)/",
        "deathDay": "/Date(540950400000)/",
        "birthDayAsString": "06 August 1928",
        "deathDayAsString": "22 February 1987",
        "image": "https://uploads3.wikiart.org/images/andy-warhol.jpg!Portrait.jpg",
        "wikipediaUrl": "http://en.wikipedia.org/wiki/Andy_Warhol",
        "dictonaries": [
            1368,
            363,
            0
        ]
    }
]